{
  "definitions": {},
  "$schema": "http://json-schema.org/draft-07/schema#",
  "$id": "http://example.com/root.json",
  "type": "array",
  "title": "The Root Schema",
  "items": {
    "$id": "#/items",
    "type": "object",
    "title": "The Items Schema",
    "required": [
      "deposit",
      "name",
      "country",
      "types",
      "depositor",
      "accountId",
      "amountOnDeposit",
      "profitability",
      "date"
    ],
    "properties": {
      "deposit": {
        "$id": "#/items/properties/deposit",
        "type": "string",
        "title": "The Deposit Schema",
        "default": "",
        "examples": [
          "0"
        ],
        "pattern": "^(.*)$"
      },
      "name": {
        "$id": "#/items/properties/name",
        "type": "string",
        "title": "The Name Schema",
        "default": "",
        "examples": [
          "JPMorgan Chase"
        ],
        "pattern": "^(.*)$"
      },
      "country": {
        "$id": "#/items/properties/country",
        "type": "string",
        "title": "The Country Schema",
        "default": "",
        "examples": [
          "USA"
        ],
        "pattern": "^(.*)$"
      },
      "types": {
        "$id": "#/items/properties/types",
        "type": "array",
        "title": "The Types Schema",
        "items": {
          "$id": "#/items/properties/types/items",
          "type": "string",
          "title": "The Items Schema",
          "default": "",
          "examples": [
            "On demand",
            "Metal",
            "Accumulative",
            "Settlement",
            "Urgent",
            "Savings"
          ],
          "pattern": "^(.*)$"
        }
      },
      "depositor": {
        "$id": "#/items/properties/depositor",
        "type": "string",
        "title": "The Depositor Schema",
        "default": "",
        "examples": [
          "Bob"
        ],
        "pattern": "^(.*)$"
      },
      "accountId": {
        "$id": "#/items/properties/accountId",
        "type": "string",
        "title": "The Accountid Schema",
        "default": "",
        "examples": [
          "3635802"
        ],
        "pattern": "^(.*)$"
      },
      "amountOnDeposit": {
        "$id": "#/items/properties/amountOnDeposit",
        "type": "string",
        "title": "The Amountondeposit Schema",
        "default": "",
        "examples": [
          "7891347"
        ],
        "pattern": "^(.*)$"
      },
      "profitability": {
        "$id": "#/items/properties/profitability",
        "type": "string",
        "title": "The Profitability Schema",
        "default": "",
        "examples": [
          "7.8"
        ],
        "pattern": "^(.*)$"
      },
      "date": {
        "$id": "#/items/properties/date",
        "type": "object",
        "title": "The Date Schema",
        "required": [
          "year",
          "month",
          "day"
        ],
        "properties": {
          "year": {
            "$id": "#/items/properties/date/properties/year",
            "type": "string",
            "title": "The Year Schema",
            "default": "",
            "examples": [
              "2025"
            ],
            "pattern": "^(.*)$"
          },
          "month": {
            "$id": "#/items/properties/date/properties/month",
            "type": "string",
            "title": "The Month Schema",
            "default": "",
            "examples": [
              "10"
            ],
            "pattern": "^(.*)$"
          },
          "day": {
            "$id": "#/items/properties/date/properties/day",
            "type": "string",
            "title": "The Day Schema",
            "default": "",
            "examples": [
              "25"
            ],
            "pattern": "^(.*)$"
          }
        }
      }
    }
  }
}
